Web APIs with R - 2 How can I scrape web pages?
…
rvest::read_html() is from {xml2}, and ultimately uses .Call(). session() is doing {httr} stuff under the hood.

library(rvest)

# Use this one later, it has a broken header row AND images.
url <- "https://en.wikipedia.org/wiki/List_of_states_and_territories_of_the_United_States"

states_raw <- 
  url |> 
  rvest::read_html() |> 
  rvest::html_table()

states_raw[[2]]

# A tibble: 51 × 13
   `Flag, name andpostal abbreviation[8]` Flag, name andpostal a…¹ Cities Cities
   <chr>                                  <chr>                    <chr>  <chr> 
 1 Flag, name andpostal abbreviation[8]   Flag, name andpostal ab… Capit… Large…
 2 Alabama                                AL                       Montg… Hunts…
 3 Alaska                                 AK                       Juneau Ancho…
 4 Arizona                                AZ                       Phoen… Phoen…
 5 Arkansas                               AR                       Littl… Littl…
 6 California                             CA                       Sacra… Los A…
 7 Colorado                               CO                       Denver Denver
 8 Connecticut                            CT                       Hartf… Bridg…
 9 Delaware                               DE                       Dover  Wilmi…
10 Florida                                FL                       Talla… Jacks…
# ℹ 41 more rows
# ℹ abbreviated name: ¹​`Flag, name andpostal abbreviation[8]`
# ℹ 9 more variables: `Ratification oradmission[A]` <chr>,
#   `Population(2020 census)[10]` <chr>, `Total area[11]` <chr>,
#   `Total area[11]` <chr>, `Land area[11]` <chr>, `Land area[11]` <chr>,
#   `Water area[11]` <chr>, `Water area[11]` <chr>, `Numberof Reps.` <chr>
…
